…
```r
Thanksgiving_Meals%>%filter(main_dish=="Turkey" & main_prep=="Baked")
```

```
## # A tibble: 422 x 65
##        id celebrate main_dish main_dish_other main_prep main_prep_other stuffing
##     <dbl> <chr>     <chr>     <chr>           <chr>     <chr>           <chr>   
##  1 4.34e9 Yes       Turkey    <NA>            Baked     <NA>            Bread-b~
##  2 4.34e9 Yes       Turkey    <NA>            Baked     <NA>            Bread-b~
##  3 4.34e9 Yes       Turkey    <NA>            Baked     <NA>            Bread-b~
##  4 4.34e9 Yes       Turkey    <NA>            Baked     <NA>            Bread-b~
##  5 4.34e9 Yes       Turkey    <NA>            Baked     <NA>            Rice-ba~
##  6 4.34e9 Yes       Turkey    <NA>            Baked     <NA>            Bread-b~
##  7 4.34e9 Yes       Turkey    <NA>            Baked     <NA>            Rice-ba~
##  8 4.34e9 Yes       Turkey    <NA>            Baked     <NA>            Bread-b~
##  9 4.34e9 Yes       Turkey    <NA>            Baked     <NA>            Bread-b~
## 10 4.34e9 Yes       Turkey    <NA>            Baked     <NA>            Bread-b~
## # ... with 412 more rows, and 58 more variables: stuffing_other <chr>,
## #   cranberry <chr>, cranberry_other <chr>, gravy <chr>, side1 <chr>,
## #   side2 <chr>, side3 <chr>, side4 <chr>, side5 <chr>, side6 <chr>,
## #   side7 <chr>, side8 <chr>, side9 <chr>, side10 <chr>, side11 <chr>,
## #   side12 <chr>, side13 <chr>, side14 <chr>, side15 <chr>, pie1 <chr>,
## #   pie2 <chr>, pie3 <chr>, pie4 <chr>, pie5 <chr>, pie6 <chr>, pie7 <chr>,
## #   pie8 <chr>, pie9 <chr>, pie10 <chr>, pie11 <chr>, pie12 <chr>, ...
```

```r
Thanksgiving_Meals%>%filter(main_dish=="Turkey" & main_prep=="Roasted")
```

```
## # A tibble: 351 x 65
##        id celebrate main_dish main_dish_other main_prep main_prep_other stuffing
##     <dbl> <chr>     <chr>     <chr>           <chr>     <chr>           <chr>   
##  1 4.34e9 Yes       Turkey    <NA>            Roasted   <NA>            Rice-ba~
##  2 4.34e9 Yes       Turkey    <NA>            Roasted   <NA>            Rice-ba~
##  3 4.34e9 Yes       Turkey    <NA>            Roasted   <NA>            Bread-b~
##  4 4.34e9 Yes       Turkey    <NA>            Roasted   <NA>            Bread-b~
##  5 4.34e9 Yes       Turkey    <NA>            Roasted   <NA>            Rice-ba~
##  6 4.34e9 Yes       Turkey    <NA>            Roasted   <NA>            Bread-b~
##  7 4.34e9 Yes       Turkey    <NA>            Roasted   <NA>            Bread-b~
##  8 4.34e9 Yes       Turkey    <NA>            Roasted   <NA>            Bread-b~
##  9 4.34e9 Yes       Turkey    <NA>            Roasted   <NA>            Bread-b~
## 10 4.34e9 Yes       Turkey    <NA>            Roasted   <NA>            Bread-b~
## # ... with 341 more rows, and 58 more variables: stuffing_other <chr>,
## #   cranberry <chr>, cranberry_other <chr>, gravy <chr>, side1 <chr>,
## #   side2 <chr>, side3 <chr>, side4 <chr>, side5 <chr>, side6 <chr>,
## #   side7 <chr>, side8 <chr>, side9 <chr>, side10 <chr>, side11 <chr>,
## #   side12 <chr>, side13 <chr>, side14 <chr>, side15 <chr>, pie1 <chr>,
## #   pie2 <chr>, pie3 <chr>, pie4 <chr>, pie5 <chr>, pie6 <chr>, pie7 <chr>,
## #   pie8 <chr>, pie9 <chr>, pie10 <chr>, pie11 <chr>, pie12 <chr>, ...
```

```r
Thanksgiving_Meals%>%filter(main_dish=="Turkey" & main_prep=="Fried")
```

```
## # A tibble: 41 x 65
##        id celebrate main_dish main_dish_other main_prep main_prep_other stuffing
##     <dbl> <chr>     <chr>     <chr>           <chr>     <chr>           <chr>   
##  1 4.34e9 Yes       Turkey    <NA>            Fried     <NA>            None    
##  2 4.34e9 Yes       Turkey    <NA>            Fried     <NA>            Bread-b~
##  3 4.34e9 Yes       Turkey    <NA>            Fried     <NA>            Bread-b~
##  4 4.34e9 Yes       Turkey    <NA>            Fried     <NA>            Bread-b~
##  5 4.34e9 Yes       Turkey    <NA>            Fried     <NA>            Bread-b~
##  6 4.34e9 Yes       Turkey    <NA>            Fried     <NA>            Bread-b~
##  7 4.34e9 Yes       Turkey    <NA>            Fried     <NA>            Bread-b~
##  8 4.34e9 Yes       Turkey    <NA>            Fried     <NA>            Bread-b~
##  9 4.34e9 Yes       Turkey    <NA>            Fried     <NA>            None    
## 10 4.34e9 Yes       Turkey    <NA>            Fried     <NA>            Bread-b~
## # ... with 31 more rows, and 58 more variables: stuffing_other <chr>,
## #   cranberry <chr>, cranberry_other <chr>, gravy <chr>, side1 <chr>,
## #   side2 <chr>, side3 <chr>, side4 <chr>, side5 <chr>, side6 <chr>,
## #   side7 <chr>, side8 <chr>, side9 <chr>, side10 <chr>, side11 <chr>,
## #   side12 <chr>, side13 <chr>, side14 <chr>, side15 <chr>, pie1 <chr>,
## #   pie2 <chr>, pie3 <chr>, pie4 <chr>, pie5 <chr>, pie6 <chr>, pie7 <chr>,
## #   pie8 <chr>, pie9 <chr>, pie10 <chr>, pie11 <chr>, pie12 <chr>, ...
```

```r
Thanksgiving_Meals%>%filter(main_dish=="Ham/Pork" & main_prep=="Baked")
```

```
## # A tibble: 22 x 65
##        id celebrate main_dish main_dish_other main_prep main_prep_other stuffing
##     <dbl> <chr>     <chr>     <chr>           <chr>     <chr>           <chr>   
##  1 4.34e9 Yes       Ham/Pork  <NA>            Baked     <NA>            Bread-b~
##  2 4.34e9 Yes       Ham/Pork  <NA>            Baked     <NA>            Bread-b~
##  3 4.34e9 Yes       Ham/Pork  <NA>            Baked     <NA>            Bread-b~
##  4 4.34e9 Yes       Ham/Pork  <NA>            Baked     <NA>            Bread-b~
##  5 4.34e9 Yes       Ham/Pork  <NA>            Baked     <NA>            Bread-b~
##  6 4.34e9 Yes       Ham/Pork  <NA>            Baked     <NA>            Bread-b~
##  7 4.34e9 Yes       Ham/Pork  <NA>            Baked     <NA>            Bread-b~
##  8 4.34e9 Yes       Ham/Pork  <NA>            Baked     <NA>            None    
##  9 4.34e9 Yes       Ham/Pork  <NA>            Baked     <NA>            Bread-b~
## 10 4.34e9 Yes       Ham/Pork  <NA>            Baked     <NA>            Bread-b~
## # ... with 12 more rows, and 58 more variables: stuffing_other <chr>,
## #   cranberry <chr>, cranberry_other <chr>, gravy <chr>, side1 <chr>,
## #   side2 <chr>, side3 <chr>, side4 <chr>, side5 <chr>, side6 <chr>,
## #   side7 <chr>, side8 <chr>, side9 <chr>, side10 <chr>, side11 <chr>,
## #   side12 <chr>, side13 <chr>, side14 <chr>, side15 <chr>, pie1 <chr>,
## #   pie2 <chr>, pie3 <chr>, pie4 <chr>, pie5 <chr>, pie6 <chr>, pie7 <chr>,
## #   pie8 <chr>, pie9 <chr>, pie10 <chr>, pie11 <chr>, pie12 <chr>, ...
```
…
### Write 2-3 sentences with your explanation of what it does.

## A new dataset called "Thanksgiving_Meals_New" was created, labelled in the first column according to "id".  From the original dataset "Thanksgiving_Meals" all variables starting with "side", "pie" and "dessert" were selected to be included in the new dataset with three variables then removed from the dataset - "side15", "pie13" and "dessert12".  The remaining "side", "pie" and "dessert" variables were then gathered into one variable called "type."  "na" observations were removed and the variable "value" was then evaluated to determine if "None", "Other (please specify)" and if so, remove them.

### 11-12. Intall package `widyr` and use `pairwise_cor()` function https://www.rdocumentation.org/packages/widyr/versions/0.1.3/topics/pairwise_cor 
### Use this code for the new dataset

```r
Thanksgiving_Meals_New%>%pairwise_cor(value, id, sort = TRUE)
```

```
## # A tibble: 992 x 3
##    item1               item2               correlation
##    <chr>               <chr>                     <dbl>
##  1 Cookies             Brownies                  0.411
##  2 Brownies            Cookies                   0.411
##  3 Sweet Potato        Macaroni and cheese       0.365
##  4 Macaroni and cheese Sweet Potato              0.365
##  5 Rolls/biscuits      Mashed potatoes           0.341
##  6 Mashed potatoes     Rolls/biscuits            0.341
##  7 Peach cobbler       Sweet Potato              0.339
##  8 Sweet Potato        Peach cobbler             0.339
##  9 Pumpkin             Mashed potatoes           0.290
## 10 Mashed potatoes     Pumpkin                   0.290
## # ... with 982 more rows
```
…
